___lwdiv@dividend 14 0 COMRAM 1
__CFG_XINST$OFF 0 0 ABS 0
__end_of_TMR2_ISR 2D10 0 CODE 0
___lldiv@counter 20 0 COMRAM 1
sprintf@f 22 0 COMRAM 1
___lwdiv@counter 18 0 COMRAM 1
___lltoft@c 1C 0 COMRAM 1
AD5930_shutdown@reg 15 0 COMRAM 1
__size_of_pull_data_for_display 0 0 ABS 0
_task_1000mS 12D 0 BANK1 1
_EUSART1_Receive_ISR 2AC2 0 CODE 0
menu_set_xy@new_column 15 0 COMRAM 1
__size_of_I2C2_Stop 0 0 ABS 0
_PR2 FBB 0 ABS 0
__S0 30000E 0 ABS 0
__S1 BE8 0 ABS 0
__S2 0 0 ABS 0
_SSP1STATbits FC7 0 ABS 0
__Hintentry 0 0 ABS 0
__Lintentry 0 0 ABS 0
__size_of_GetSysTick 0 0 ABS 0
___ftadd@f1 60 0 BANK0 1
AD5930_shutdown@F7995 CE 0 BANK0 1
menu_UpdateSystemDisplay@FreqIndex BB 0 BANK0 1
_selected_subgrp 3B 0 COMRAM 1
__end_of_init_hardware 209E 0 CODE 0
_TMR2_DefaultInterruptHandler 2D22 0 CODE 0
initDebounce@initalState 16 0 COMRAM 1
pull_data_for_display@data 78 0 BANK0 1
_TMR2 FBC 0 ABS 0
_LATA F89 0 ABS 0
_LATB F8A 0 ABS 0
_LATC F8B 0 ABS 0
_LATD F8C 0 ABS 0
_LATE F8D 0 ABS 0
__end_of_hal_i2c_get_pkt 1E60 0 CODE 0
_WPUB F61 0 ABS 0
menu_UpdateSystemDisplay@pFrequency B4 0 BANK0 1
__end_of_AD5930_write_def_control 28E8 0 CODE 0
_AD5930_write_freq 12F6 0 CODE 0
___ftadd@f2 63 0 BANK0 1
___IT 101 0 ABS 0
pc_cmd_parse@returnCode 14 0 COMRAM 1
__end_of_PIN_MANAGER_Initialize 275A 0 CODE 0
__size_of_AD5930_write_freq 0 0 ABS 0
decode_byte@return_val 19 0 COMRAM 1
_DisplayOnOff 2CC6 0 CODE 0
run_test_mode@temp 9D 0 BANK0 1
build_test_libraries@F8360 600 0 BANK6 1
_line 48 0 COMRAM 1
_time FEFF 0 MEDIUMCONST 0
run_test_mode@temp2 A5 0 BANK0 1
_main 1186 0 CODE 0
___sp 0 0 STACK 2
btemp 4C 0 COMRAM 1
_I2C2_BusCollisionISR 2D24 0 CODE 0
_play FEEF 0 MEDIUMCONST 0
_stop FEF7 0 MEDIUMCONST 0
start CA 0 CODE 0
_test_mode_freq_list 1C7 0 BANK1 1
?___ftadd 60 0 BANK0 1
___fttol@f1 69 0 BANK0 1
__size_of_run_test_mode 0 0 ABS 0
_debounceInput 1A44 0 CODE 0
___ftmul@f1 25 0 COMRAM 1
InitEEPROM@Max_Data_Len 73 0 BANK0 1
___fttol@lval 73 0 BANK0 1
_p_i2c2_current E2 0 BANK0 1
menu_UpdateSystemDisplay@key 37 0 COMRAM 1
_TRISA F92 0 ABS 0
_TRISB F93 0 ABS 0
_TRISC F94 0 ABS 0
__end_of_initSysTick 2C6E 0 CODE 0
_TRISD F95 0 ABS 0
_WriteString 2528 0 CODE 0
__Hirdata 0 0 CODE 0
_TRISE F96 0 ABS 0
__Lirdata 0 0 CODE 0
__HRAM 0 0 ABS 0
__LRAM 1 0 ABS 0
_T2CON FBA 0 ABS 0
_eusart1RxBuffer 11D 0 BANK1 1
__size_of_systemTimerCallback 0 0 ABS 0
_buffer_index 140 0 BANK1 1
__end_of_WriteIns 1966 0 CODE 0
___ftmul@f2 28 0 COMRAM 1
___DCByte 1EC 0 BANK1 1
__end_of_EUSART1_Initialize 2A36 0 CODE 0
__CFG_WDTPS$32768 0 0 ABS 0
_eusart1TxBuffer 125 0 BANK1 1
_run_test_mode$2391 9F 0 BANK0 1
__Hconfig 30000E 0 CONFIG 0
_run_test_mode$2392 A1 0 BANK0 1
_run_test_mode$2394 A3 0 BANK0 1
__Lconfig 300000 0 CONFIG 0
___ftpack 1BCE 0 CODE 0
I2C2_Stop@completion_code 3 0 COMRAM 1
__size_of_initDebounce 0 0 ABS 0
?___llmod 14 0 COMRAM 1
__size_of_SPI1_Initialize 0 0 ABS 0
?___awmod 14 0 COMRAM 1
main@i 1EB 0 BANK1 1
__end_of_serial_GetFromBuffer 16B2 0 CODE 0
__size_of_I2C2_ISR 0 0 ABS 0
?___lwmod 1B 0 COMRAM 1
_display_generate_cust_chars 2960 0 CODE 0
_init_hardware 2018 0 CODE 0
__Hbigram 0 0 ABS 0
__Lbigram 0 0 ABS 0
__Hrparam 0 0 COMRAM 1
__Lrparam 0 0 COMRAM 1
__Hram 0 0 ABS 0
__Lram 0 0 ABS 0
__end_of_display_generate_cust_chars 299A 0 CODE 0
__Hcomram 0 0 ABS 0
AD5930_write_def_control@reg 15 0 COMRAM 1
__Lcomram 0 0 ABS 0
_pause FEE7 0 MEDIUMCONST 0
__Hsfr 0 0 ABS 0
__Lsfr 0 0 ABS 0
__Hbss 0 0 RAM 1
__CFG_STVREN$ON 0 0 ABS 0
__Lbss 0 0 RAM 1
___param_bank 10 0 ABS 0
__Hnvrram 0 0 COMRAM 1
__Lnvrram 0 0 COMRAM 1
_serialMessageRdy F7 0 BANK0 1
?_sprintf 20 0 COMRAM 1
_WriteIns 1886 0 CODE 0
__end_of_TMR2_Initialize 2BA6 0 CODE 0
int$flags 4C 0 COMRAM 1
___ftmul@cntr 32 0 COMRAM 1
__size_of___ftadd 0 0 ABS 0
__size_of_menu_puts 0 0 ABS 0
_WriteData 17A6 0 CODE 0
_RCREG1 FAE 0 ABS 0
_RCSTA1 FAB 0 ABS 0
_TXREG1 FAD 0 ABS 0
_SPBRG1 FAF 0 ABS 0
_TXSTA1 FAC 0 ABS 0
InitEEPROM@_eeprom 70 0 BANK0 1
__end_of_play FEF7 0 MEDIUMCONST 0
_INTERRUPT_InterruptManager 8 0 CODE 0
_key_left 1A4 0 BANK1 1
__end_of_menu_UpdateSystemDisplay 4CA 0 CODE 0
menu_puts@i 19 0 COMRAM 1
?___fttol 69 0 BANK0 1
_PIE1bits F9D 0 ABS 0
_PIE3bits FA3 0 ABS 0
__Heeprom_data 0 0 EEDATA 0
__Leeprom_data 0 0 EEDATA 0
__size_of_timePassed 0 0 ABS 0
_PIR1bits F9E 0 ABS 0
_PIR3bits FA4 0 ABS 0
?___ftmul 25 0 COMRAM 1
_LATAbits F89 0 ABS 0
sprintf@ap 2F 0 COMRAM 1
_LATBbits F8A 0 ABS 0
_LATCbits F8B 0 ABS 0
_LATDbits F8C 0 ABS 0
__Hintsave_regs 0 0 BIGRAM 1
_LATEbits F8D 0 ABS 0
__Lintsave_regs 0 0 BIGRAM 1
menu_UpdateSystemDisplay@systemMode BA 0 BANK0 1
_ANSELA F38 0 ABS 0
_menu_page DE 0 BANK0 1
_RCONbits FD0 0 ABS 0
__end_of_I2C2_BusCollisionISR 2D26 0 CODE 0
_ANSELB F39 0 ABS 0
?___lldiv 14 0 COMRAM 1
_ANSELC F3A 0 ABS 0
_ANSELD F3B 0 ABS 0
__size_of_decode_byte 0 0 ABS 0
DefineCharacter@i 1C 0 COMRAM 1
_decode_byte 1E60 0 CODE 0
strncpy@size 18 0 COMRAM 1
__Hbigbss 0 0 BIGRAM 1
__Lbigbss 0 0 BIGRAM 1
_ANSELE F3C 0 ABS 0
__IT_INT_MASK F1 0 BANK0 1
__Hintret 0 0 ABS 0
_I2C2_FunctionComplete 2C6E 0 CODE 0
__Lintret 0 0 ABS 0
___lltoft 23CC 0 CODE 0
__Hramtop 1000 0 RAM 0
__Lramtop 1000 0 RAM 0
__Hstruct 0 0 COMRAM 1
__Lstruct 0 0 COMRAM 1
__Hbigdata 0 0 BIGRAM 1
__Lbigdata 0 0 BIGRAM 1
_key_down 19F 0 BANK1 1
__Hmediumconst 10000 0 MEDIUMCONST 0
__Lmediumconst FEDC 0 MEDIUMCONST 0
?___lwdiv 14 0 COMRAM 1
__Hfarbss 0 0 FARRAM 0
__Lfarbss 0 0 FARRAM 0
_menu_move_cursor 25CE 0 CODE 0
__pmediumconst FEDC 0 MEDIUMCONST 0
__IT_ID F0 0 BANK0 1
__end_of_stop FEFF 0 MEDIUMCONST 0
__Hintcode CA 0 CODE 0
__Lintcode 8 0 CODE 0
__Hfardata 0 0 FARRAM 0
__Lfardata 0 0 FARRAM 0
_key_stop 1BD 0 BANK1 1
__end_of_timePassed 2528 0 CODE 0
__pintcode 8 0 CODE 0
_pull_current_status_for_display 2A66 0 CODE 0
_OSCCON FD3 0 ABS 0
__Habs1 0 0 ABS 0
__Labs1 0 0 ABS 0
__end_of_reset_link_layer 2C3A 0 CODE 0
__CFG_EBTR0$OFF 0 0 ABS 0
___ftmul@f3_as_product 2F 0 COMRAM 1
strncpy@cp 1C 0 COMRAM 1
_PLLRDY 7E97 0 ABS 0
__HnvFARRAM 0 0 FARRAM 0
__LnvFARRAM 0 0 FARRAM 0
DefineCharacter@data 17 0 COMRAM 1
__CFG_EBTR1$OFF 0 0 ABS 0
__size_of_menu_clear 0 0 ABS 0
I2C2_MasterWriteTRBBuild@length 18 0 COMRAM 1
serial_GetFromBuffer@data 1A 0 COMRAM 1
I2C2_ISR@i2c_10bit_address_restart 3D 0 COMRAM 1
__end_of___ftpack 1C7C 0 CODE 0
?___ftpack 14 0 COMRAM 1
__CFG_CCP2MX$PORTC1 0 0 ABS 0
_eusart1TxBufferRemaining 43 0 COMRAM 1
_EUSART1_Initialize 2A02 0 CODE 0
hal_i2c_get_pkt@mem_addr 1D 0 COMRAM 1
__CFG_EBTR2$OFF 0 0 ABS 0
I2C2_MasterWrite@trBlock 195 0 BANK1 1
__CFG_CCP3MX$PORTB5 0 0 ABS 0
_pc_cmd_parse 2292 0 CODE 0
_systemTimerCallback 2CDE 0 CODE 0
__size_of___ftpack 0 0 ABS 0
__end_of_dpowers FEE7 0 MEDIUMCONST 0
__size_of___fttol 0 0 ABS 0
_eusart1RxCount 40 0 COMRAM 1
__end_of___awmod 2292 0 CODE 0
___ftadd@sign 66 0 BANK0 1
menu_move_cursor@new_column 1A 0 COMRAM 1
hal_i2c_get_pkt@numBytes 21 0 COMRAM 1
__size_of_TMR2_StopTimer 0 0 ABS 0
__Hdata 0 0 ABS 0
__Ldata 0 0 ABS 0
__size_of_DefineCharacter 0 0 ABS 0
__CFG_EBTR3$OFF 0 0 ABS 0
__size_of_I2C2_Initialize 0 0 ABS 0
_menu_draw_cursor 2A36 0 CODE 0
stackhi F37 0 ABS 0
sprintf@sp 20 0 COMRAM 1
__size_of_menu_set_xy 0 0 ABS 0
__size_of_menu_putchar 0 0 ABS 0
decode_byte@data_in 14 0 COMRAM 1
__HcstackBANK0 0 0 ABS 0
__LcstackBANK0 0 0 ABS 0
__size_of_DisplayOnOff 0 0 ABS 0
__pcstackBANK0 60 0 BANK0 1
__size_of_ReadExtEEPROM 0 0 ABS 0
___awmod@sign 19 0 COMRAM 1
__Htemp 4D 0 COMRAM 1
__Ltemp 4C 0 COMRAM 1
stacklo BE8 0 ABS 0
__Hrbit 0 0 COMRAM 1
__Lrbit 0 0 COMRAM 1
_key_pause 1A9 0 BANK1 1
_i2c2_object C7 0 BANK0 1
_hal_i2c_get_pkt 1DC8 0 CODE 0
__Hinit CA 0 CODE 0
__Linit CA 0 CODE 0
__end_of_debounceInput 1B14 0 CODE 0
_column 3F 0 COMRAM 1
__Hintcodelo CA 0 CODE 0
__Lintcodelo CA 0 CODE 0
___wmul 2B16 0 CODE 0
strncpy@to 14 0 COMRAM 1
__Hrbss 0 0 COMRAM 1
__end_of_main 12F6 0 CODE 0
__Lrbss 0 0 COMRAM 1
_key_up 1C2 0 BANK1 1
_menu_buffer 280 0 BANK2 1
__end_of_GetSysTick 2CF4 0 CODE 0
__Htext 0 0 ABS 0
__Ltext 0 0 ABS 0
decode_byte@data_out 16 0 COMRAM 1
__end_of_INTERRUPT_Initialize 2D1A 0 CODE 0
I2C2_MasterRead@trBlock 190 0 BANK1 1
__end_of_TMR2_SetInterruptHandler 2CFE 0 CODE 0
hal_i2c_get_pkt@writeBuffer 22 0 COMRAM 1
menu_UpdateSystemDisplay@temp BF 0 BANK0 1
sprintf@width 34 0 COMRAM 1
___wmul@multiplier 14 0 COMRAM 1
__HdataBANK0 0 0 ABS 0
__LdataBANK0 0 0 ABS 0
__size_of_menu_draw_cursor 0 0 ABS 0
__CFG_LVP$ON 0 0 ABS 0
__pdataBANK0 FB 0 BANK0 1
debounceInput@pin 14 0 COMRAM 1
___ftmul@sign 33 0 COMRAM 1
end_of_initialization 1A3A 0 CODE 0
_DefineCharacter 261E 0 CODE 0
SPI1_Exchange8bit@data 14 0 COMRAM 1
I2C2_ISR@i2c_address 4A 0 COMRAM 1
I2C2_MasterReadTRBBuild@pdata 16 0 COMRAM 1
_run_test_mode D4E 0 CODE 0
_I2C2_Stop 282C 0 CODE 0
strncpy@from 16 0 COMRAM 1
timePassed@now 1A 0 COMRAM 1
__size_of_menu_Init 0 0 ABS 0
I2C2_MasterTRBInsert@ptrb_list 14 0 COMRAM 1
_SPBRGH1 FB0 0 ABS 0
_initDispl 1EF6 0 CODE 0
_TMR2_StartTimer 2D1E 0 CODE 0
___wmul@multiplicand 16 0 COMRAM 1
__end_of_menu_Init 29CE 0 CODE 0
__end_of_systemTimerCallback 2CEA 0 CODE 0
__size_of_SetPostion 0 0 ABS 0
_OSCCON2 FD2 0 ABS 0
_update_freq FA 0 BANK0 1
build_test_header@F8386 100 0 BANK1 1
__HnvBANK1 0 0 ABS 0
___DCDelay 1ED 0 BANK1 1
__LnvBANK1 0 0 ABS 0
_menu_Init 299A 0 CODE 0
__pnvBANK1 1EC 0 BANK1 1
__end_of_I2C2_FunctionComplete 2C88 0 CODE 0
__HdataBANK1 0 0 ABS 0
__CFG_FOSC$HSMP 0 0 ABS 0
__LdataBANK1 0 0 ABS 0
serial_GetFromBuffer@port 21 0 COMRAM 1
serial_GetFromBuffer@byteCnt 1C 0 COMRAM 1
WriteIns@ins 15 0 COMRAM 1
__pdataBANK1 1C7 0 BANK1 1
__end_of_InitEEPROM 2122 0 CODE 0
__end_of_ButtonPressed 2B16 0 CODE 0
_SSP1ADD FC8 0 ABS 0
_SSP2ADD F6E 0 ABS 0
__end_of_pull_current_status_for_display 2A94 0 CODE 0
__IT_SAVE_WREG F4 0 BANK0 1
_key_right 1B3 0 BANK1 1
_InitEEPROM 209E 0 CODE 0
__end_of___ftadd D4E 0 CODE 0
__end_of___lltoft 2428 0 CODE 0
_PORTBbits F81 0 ABS 0
_PORTDbits F83 0 ABS 0
_T2CONbits FBA 0 ABS 0
_PORTEbits F84 0 ABS 0
_serial_GetFromBuffer 1590 0 CODE 0
__size_of_debounceInput 0 0 ABS 0
_key_power 1AE 0 BANK1 1
__end_of_AD5930_write_freq 144C 0 CODE 0
?___lltoft 1C 0 COMRAM 1
_SSP1BUF FC9 0 ABS 0
_SSP2BUF F6F 0 ABS 0
menu_puts@s 17 0 COMRAM 1
_SYSTEM_Initialize 2C02 0 CODE 0
menu_putchar@x 16 0 COMRAM 1
__Hibigdata 0 0 CODE 0
_SerialPortData 10F 0 BANK1 1
__Libigdata 0 0 CODE 0
__size_of_I2C2_BusCollisionISR 0 0 ABS 0
_OSCTUNE F9B 0 ABS 0
__HbssBIGRAM 0 0 ABS 0
__LbssBIGRAM 0 0 ABS 0
initDebounce@pin 14 0 COMRAM 1
_pull_data_for_display 275A 0 CODE 0
__pbssBIGRAM 680 0 BIGRAM 1
_curr_menu F5 0 BANK0 1
__size_of___lltoft 0 0 ABS 0
__Hifardata 0 0 CODE 0
__Lifardata 0 0 CODE 0
menu_UpdateSystemDisplay@F428 480 0 BANK4 1
__Hbank0 0 0 ABS 0
__Lbank0 0 0 ABS 0
DisplayOnOff@data 16 0 COMRAM 1
_EUSART1_Transmit_ISR 2A94 0 CODE 0
__Hbank1 0 0 ABS 0
__Lbank1 0 0 ABS 0
__size_of_EUSART1_Transmit_ISR 0 0 ABS 0
__Hbank2 0 0 ABS 0
__Lbank2 0 0 ABS 0
_timePassed 24D4 0 CODE 0
__Hbank3 0 0 ABS 0
_TMR2_SetInterruptHandler 2CF4 0 CODE 0
__Lbank3 0 0 ABS 0
___ftmul@exp 2E 0 COMRAM 1
__Hbank4 0 0 ABS 0
__Lbank4 0 0 ABS 0
__Hbank5 0 0 ABS 0
__Lbank5 0 0 ABS 0
__Hpowerup CA 0 CODE 0
__Lpowerup CA 0 CODE 0
__Hbank6 0 0 ABS 0
__Lbank6 0 0 ABS 0
__Hbank7 0 0 ABS 0
__Lbank7 0 0 ABS 0
__Hbank8 0 0 ABS 0
__Lbank8 0 0 ABS 0
__Htext0 0 0 ABS 0
__Ltext0 0 0 ABS 0
__Hbank9 0 0 ABS 0
__Lbank9 0 0 ABS 0
__size_of_WriteData 0 0 ABS 0
__size_of_strncpy 0 0 ABS 0
__Htext1 0 0 ABS 0
__size_of_pc_cmd_parse 0 0 ABS 0
__Ltext1 0 0 ABS 0
__size_of_I2C2_MasterTRBInsert 0 0 ABS 0
__ptext0 1186 0 CODE 0
_INTCON2bits FF1 0 ABS 0
__end_of_TMR2_StopTimer 2D1E 0 CODE 0
__Htext2 0 0 ABS 0
__Ltext2 0 0 ABS 0
__ptext1 24D4 0 CODE 0
__Htext3 0 0 ABS 0
__Ltext3 0 0 ABS 0
__ptext2 2CEA 0 CODE 0
__HdataBANK3 0 0 ABS 0
__LdataBANK3 0 0 ABS 0
__Htext4 0 0 ABS 0
__Ltext4 0 0 ABS 0
__ptext3 1D26 0 CODE 0
__pdataBANK3 382 0 BANK3 1
__Htext5 0 0 ABS 0
__CFG_P2BMX$PORTD2 0 0 ABS 0
__Ltext5 0 0 ABS 0
__ptext4 1A44 0 CODE 0
__end_of_WriteData 1886 0 CODE 0
__Htext6 0 0 ABS 0
__Ltext6 0 0 ABS 0
__ptext5 D4E 0 CODE 0
__end_of_decode_byte 1EF6 0 CODE 0
__Htext7 0 0 ABS 0
__Ltext7 0 0 ABS 0
__ptext6 1C7C 0 CODE 0
__HbssCOMRAM 0 0 ABS 0
__LbssCOMRAM 0 0 ABS 0
_GetSysTick 2CEA 0 CODE 0
__Htext8 0 0 ABS 0
__Ltext8 0 0 ABS 0
__ptext7 2AEE 0 CODE 0
__pbssCOMRAM 39 0 COMRAM 1
_SysTick_Ticked EE 0 BANK0 1
__Htext9 0 0 ABS 0
__HcstackBANK1 0 0 ABS 0
__Ltext9 0 0 ABS 0
__LcstackBANK1 0 0 ABS 0
__ptext8 2528 0 CODE 0
timePassed@timeOrig 16 0 COMRAM 1
sprintf@val 31 0 COMRAM 1
_CheckBusy 2CFE 0 CODE 0
__CFG_T3CMX$PORTC0 0 0 ABS 0
__ptext9 12F6 0 CODE 0
__pcstackBANK1 1E7 0 BANK1 1
pc_cmd_handler@c 23 0 COMRAM 1
__Hclrtext 0 0 ABS 0
__Lclrtext 0 0 ABS 0
_menu_puts 22FE 0 CODE 0
__end_of_SetPostion 2CDE 0 CODE 0
_TMR2_InterruptHandler D6 0 BANK0 1
__end_of_task10mS 1DC8 0 CODE 0
_call_new_menu FF 0 BANK0 1
DefineCharacter@postion 1B 0 COMRAM 1
_menu_UpdateSystemDisplay CE 0 CODE 0
__CFG_HFOFST$ON 0 0 ABS 0
__end_of_CheckBusy 2D08 0 CODE 0
_extMemory 182 0 BANK1 1
__end_of__initialization 1A3A 0 CODE 0
__CFG_PRICLKEN$ON 0 0 ABS 0
_menu_putchar 29CE 0 CODE 0
___rparam_used 1 0 ABS 0
__size_of_menu_move_cursor 0 0 ABS 0
__end_of___lwdiv 25CE 0 CODE 0
_ButtonPressed 2AEE 0 CODE 0
_I2C2_MasterWriteTRBBuild 27A6 0 CODE 0
_i2c2_state 46 0 COMRAM 1
I2C2_ISR@pi2c_buf_ptr D4 0 BANK0 1
__end_of_I2C2_MasterWriteTRBBuild 27EA 0 CODE 0
ButtonPressed@pin 14 0 COMRAM 1
_I2C2_Initialize 2924 0 CODE 0
_I2C2_MasterReadTRBBuild 266E 0 CODE 0
___ftadd AFE 0 CODE 0
ReadExtEEPROM@MemAddr 6E 0 BANK0 1
_appData 500 0 BANK5 1
_SPI1_Initialize 2CAA 0 CODE 0
_TMR2_Initialize 2B84 0 CODE 0
get_frequency_result@F8346 13D 0 BANK1 1
_sysMode 49 0 COMRAM 1
__Hidata 0 0 CODE 0
__Lidata 0 0 CODE 0
__size_of_serial_GetFromBuffer 0 0 ABS 0
__end_of_ClrDisplay 2CC6 0 CODE 0
__Hrdata 0 0 COMRAM 1
__Lrdata 0 0 COMRAM 1
_task_500mS 139 0 BANK1 1
_currGenTest 200 0 BANK2 1
__Hidloc 200008 0 IDLOC 0
__Lidloc 200000 0 IDLOC 0
serial_GetFromBuffer@retVal 20 0 COMRAM 1
I2C2_MasterReadTRBBuild@length 18 0 COMRAM 1
_SysTick 39 0 COMRAM 1
__CFG_PWRTEN$OFF 0 0 ABS 0
__Hstack 0 0 STACK 2
__Lstack 0 0 STACK 2
___llmod 2366 0 CODE 0
__end_of___lldiv 21A4 0 CODE 0
___awmod 2222 0 CODE 0
___lwmod 27EA 0 CODE 0
__Hparam 0 0 COMRAM 1
__Lparam 0 0 COMRAM 1
__Hspace_0 30000E 0 ABS 0
__HcstackCOMRAM 0 0 ABS 0
__Lspace_0 0 0 ABS 0
__LcstackCOMRAM 0 0 ABS 0
__end_of_menu_puts 2366 0 CODE 0
__pcstackCOMRAM 1 0 COMRAM 1
___ftpack@sign 18 0 COMRAM 1
__end_of_pc_cmd_parse 22FE 0 CODE 0
_key_sel 1B8 0 BANK1 1
AD5930_write_freq@reg 86 0 BANK0 1
_sprintf F7E 0 CODE 0
__Hspace_1 BE8 0 ABS 0
__size_of_display_generate_cust_chars 0 0 ABS 0
__Lspace_1 0 0 ABS 0
___ftadd@exp1 68 0 BANK0 1
__Hsmallconst 0 0 SMALLCONST 0
__Lsmallconst 0 0 SMALLCONST 0
__end_of_menu_draw_cursor 2A66 0 CODE 0
run_test_mode@disp_buff 88 0 BANK0 1
__Hspace_2 0 0 ABS 0
__Lspace_2 0 0 ABS 0
_i2c2_tr_queue 19A 0 BANK1 1
___fttol 144C 0 CODE 0
__Hnvbit 0 0 COMRAM 1
__size_of_AD5930_shutdown 0 0 ABS 0
__Lnvbit 0 0 COMRAM 1
?___wmul 14 0 COMRAM 1
_isdigit 2BE4 0 CODE 0
__Hcinit 0 0 ABS 0
___ftmul 16B2 0 CODE 0
__Lcinit 0 0 ABS 0
___lldiv 2122 0 CODE 0
_AD5930_write_def_control 28AC 0 CODE 0
__pcinit 1966 0 CODE 0
__CFG_EBTRB$OFF 0 0 ABS 0
_eusart1RxHead 41 0 COMRAM 1
_menu_clear 2428 0 CODE 0
__ramtop 1000 0 RAM 0
__mediumconst FEDC 0 MEDIUMCONST 0
___lwdiv 257C 0 CODE 0
__IT_SAVE_STATUS F3 0 BANK0 1
menu_move_cursor@show 17 0 COMRAM 1
__size_of_main 0 0 ABS 0
WriteString@string 16 0 COMRAM 1
_dpowers FEDD 0 MEDIUMCONST 0
menu_NewMenu@subGrp_Index 1E7 0 BANK1 1
__end_of_INTERRUPT_InterruptManager CA 0 CODE 0
_eusart1TxHead 44 0 COMRAM 1
__Hconst 0 0 CONST 0
__Lconst 0 0 CONST 0
_TMR2_StopTimer 2D1A 0 CODE 0
I2C2_MasterWriteTRBBuild@ptrb 14 0 COMRAM 1
__end_of_menu_move_cursor 261E 0 CODE 0
_strncpy 21A4 0 CODE 0
__size_of_init_hardware 0 0 ABS 0
_PIN_MANAGER_Initialize 270C 0 CODE 0
__size_of_Data_is_Valid 0 0 ABS 0
Data_is_Valid@success 60 0 BANK0 1
__end_of_menu_set_xy 2C54 0 CODE 0
pull_data_for_display@index 76 0 BANK0 1
__CFG_PLLCFG$ON 0 0 ABS 0
___fttol@exp1 77 0 BANK0 1
__HidataBANK0 0 0 ABS 0
__LidataBANK0 0 0 ABS 0
__end_of_menu_putchar 2A02 0 CODE 0
__pidataBANK0 2D10 0 CODE 0
__end_of_isdigit 2C02 0 CODE 0
_subgrp_lookup 874 0 BIGRAM 1
__end_of_sprintf 1186 0 CODE 0
_menu_timeout FB 0 BANK0 1
AD5930_write_freq@data 82 0 BANK0 1
menu_move_cursor@new_line 16 0 COMRAM 1
__end_of_pause FEEF 0 MEDIUMCONST 0
__CFG_WRT0$OFF 0 0 ABS 0
_loc_buffer 300 0 BANK3 1
__end_of_AD5930_shutdown 2924 0 CODE 0
debounceInput@rawInput 16 0 COMRAM 1
__size_of_InitEEPROM 0 0 ABS 0
___ftpack@arg 14 0 COMRAM 1
__end_of_SetContrast 2B60 0 CODE 0
AD5930_write_freq@F7990 D2 0 BANK0 1
AD5930_write_freq@freq 78 0 BANK0 1
__size_of_ButtonPressed 0 0 ABS 0
__end_of_run_test_mode F7E 0 CODE 0
__size_of_SYSTEM_Initialize 0 0 ABS 0
__end_of_TMR2_DefaultInterruptHandler 2D24 0 CODE 0
__CFG_WRT1$OFF 0 0 ABS 0
_Test_lookup 680 0 BIGRAM 1
__end_of_I2C2_ISR AFE 0 CODE 0
__size_of___lwdiv 0 0 ABS 0
__size_of_I2C2_MasterReadTRBBuild 0 0 ABS 0
_subgrp_cntr EA 0 BANK0 1
__size_of_INTERRUPT_Initialize 0 0 ABS 0
menu_NewMenu@temp 1E8 0 BANK1 1
___ftadd@exp2 67 0 BANK0 1
__HbssBANK0 0 0 ABS 0
__LbssBANK0 0 0 ABS 0
_SSP1CON1 FC6 0 ABS 0
_SSP2CON1 F6C 0 ABS 0
__CFG_MCLRE$EXTMCLR 0 0 ABS 0
__CFG_WRT2$OFF 0 0 ABS 0
_pc_cmd_handler 1F8C 0 CODE 0
__Hbank10 0 0 ABS 0
__pbssBANK0 C7 0 BANK0 1
__Lbank10 0 0 ABS 0
__size_of_AD5930_write_def_control 0 0 ABS 0
__size_of_isdigit 0 0 ABS 0
_BAUDCON1 FB8 0 ABS 0
__end_of_EUSART1_Receive_ISR 2AEE 0 CODE 0
__Hbank11 0 0 ABS 0
__Lbank11 0 0 ABS 0
__end_of_OSCILLATOR_Initialize 2C9A 0 CODE 0
_SSP2CON3 F69 0 ABS 0
__size_of_TMR2_SetInterruptHandler 0 0 ABS 0
__CFG_WRT3$OFF 0 0 ABS 0
__CFG_FCMEN$OFF 0 0 ABS 0
_initDebounce 26BE 0 CODE 0
__Hbank12 0 0 ABS 0
__Lbank12 0 0 ABS 0
__end_of_SYSTEM_Initialize 2C20 0 CODE 0
sprintf@flag 2E 0 COMRAM 1
build_tests@F8377 400 0 BANK4 1
__Hbank13 0 0 ABS 0
__Lbank13 0 0 ABS 0
__HbssBANK1 0 0 ABS 0
__LbssBANK1 0 0 ABS 0
_selected_grp_remaining_time_sec E8 0 BANK0 1
_INTERRUPT_Initialize 2D16 0 CODE 0
__Hbank14 0 0 ABS 0
__pbssBANK1 100 0 BANK1 1
__Lbank14 0 0 ABS 0
__Htext10 0 0 ABS 0
__Ltext10 0 0 ABS 0
__Htext20 0 0 ABS 0
I2C2_MasterTRBInsert@pflag 16 0 COMRAM 1
__Ltext20 0 0 ABS 0
__ptext10 23CC 0 CODE 0
__Hbank15 0 0 ABS 0
pull_current_status_for_display@pRemainingTime 14 0 COMRAM 1
__Lbank15 0 0 ABS 0
__Htext30 0 0 ABS 0
__Htext11 0 0 ABS 0
__Ltext30 0 0 ABS 0
__Ltext11 0 0 ABS 0
__ptext20 1590 0 CODE 0
__size_of_SetContrast 0 0 ABS 0
__Htext40 0 0 ABS 0
__Htext21 0 0 ABS 0
__Ltext40 0 0 ABS 0
__Ltext21 0 0 ABS 0
__ptext11 144C 0 CODE 0
__ptext30 2428 0 CODE 0
_main_menu_txt 382 0 BANK3 1
__Htext50 0 0 ABS 0
__Htext31 0 0 ABS 0
__Htext12 0 0 ABS 0
__Ltext50 0 0 ABS 0
__Ltext31 0 0 ABS 0
__Ltext12 0 0 ABS 0
__ptext21 2222 0 CODE 0
__ptext40 22FE 0 CODE 0
__end_of_WriteString 257C 0 CODE 0
__end_of_TMR2_CallBack 2B84 0 CODE 0
__Htext60 0 0 ABS 0
__Htext41 0 0 ABS 0
__Htext22 0 0 ABS 0
__Ltext60 0 0 ABS 0
__Ltext41 0 0 ABS 0
__Ltext22 0 0 ABS 0
__ptext12 16B2 0 CODE 0
__ptext31 CE 0 CODE 0
__ptext50 2D16 0 CODE 0
_TMR2_CallBack 2B60 0 CODE 0
_SetContrast 2B3C 0 CODE 0
__Htext70 0 0 ABS 0
__Htext51 0 0 ABS 0
__Htext32 0 0 ABS 0
__Htext13 0 0 ABS 0
__Ltext70 0 0 ABS 0
__Ltext51 0 0 ABS 0
__Ltext32 0 0 ABS 0
__Ltext13 0 0 ABS 0
__HbssBANK2 0 0 ABS 0
__ptext22 1E60 0 CODE 0
__ptext41 29CE 0 CODE 0
__ptext60 261E 0 CODE 0
__LbssBANK2 0 0 ABS 0
_RCSTA1bits FAB 0 ABS 0
__Htext80 0 0 ABS 0
__Htext61 0 0 ABS 0
__Htext42 0 0 ABS 0
__Htext23 0 0 ABS 0
__Ltext80 0 0 ABS 0
__Ltext61 0 0 ABS 0
__Ltext42 0 0 ABS 0
__Ltext23 0 0 ABS 0
InitEEPROM@SlaveAddr 72 0 BANK0 1
__ptext13 AFE 0 CODE 0
__ptext32 21A4 0 CODE 0
__ptext51 2924 0 CODE 0
__ptext70 1DC8 0 CODE 0
__pbssBANK2 200 0 BANK2 1
__Htext71 0 0 ABS 0
__Htext52 0 0 ABS 0
__Htext33 0 0 ABS 0
__Htext14 0 0 ABS 0
__Ltext71 0 0 ABS 0
__Ltext52 0 0 ABS 0
__Ltext33 0 0 ABS 0
__Ltext14 0 0 ABS 0
__ptext23 2C20 0 CODE 0
__ptext42 2366 0 CODE 0
__ptext61 17A6 0 CODE 0
__ptext80 282C 0 CODE 0
sprintf@prec 33 0 COMRAM 1
__HidataBANK1 0 0 ABS 0
__LidataBANK1 0 0 ABS 0
__Htext81 0 0 ABS 0
__Htext62 0 0 ABS 0
__Htext43 0 0 ABS 0
__Htext24 0 0 ABS 0
__Ltext81 0 0 ABS 0
__Ltext62 0 0 ABS 0
__Ltext43 0 0 ABS 0
__Ltext24 0 0 ABS 0
__ptext14 1BCE 0 CODE 0
__ptext33 F7E 0 CODE 0
__ptext52 2A02 0 CODE 0
__ptext71 27A6 0 CODE 0
__pidataBANK1 2BA6 0 CODE 0
__Htext72 0 0 ABS 0
__Htext53 0 0 ABS 0
__Htext34 0 0 ABS 0
__Htext15 0 0 ABS 0
__Ltext72 0 0 ABS 0
__Ltext53 0 0 ABS 0
__Ltext34 0 0 ABS 0
__Ltext15 0 0 ABS 0
__ptext24 299A 0 CODE 0
__ptext43 2122 0 CODE 0
__ptext62 2B3C 0 CODE 0
__ptext81 2C6E 0 CODE 0
__Htext82 0 0 ABS 0
__Htext63 0 0 ABS 0
__Htext44 0 0 ABS 0
__Htext25 0 0 ABS 0
__Ltext82 0 0 ABS 0
__Ltext63 0 0 ABS 0
__Ltext44 0 0 ABS 0
__Ltext25 0 0 ABS 0
__ptext15 28AC 0 CODE 0
__ptext34 2BE4 0 CODE 0
__ptext53 2C54 0 CODE 0
__ptext72 1B14 0 CODE 0
___inthi_sp 0 0 STACK 2
_test_mode_index F9 0 BANK0 1
_SetPostion 2CD2 0 CODE 0
__Htext73 0 0 ABS 0
__Htext54 0 0 ABS 0
__Htext35 0 0 ABS 0
__Htext16 0 0 ABS 0
__Ltext73 0 0 ABS 0
__Ltext54 0 0 ABS 0
__Ltext35 0 0 ABS 0
__Ltext16 0 0 ABS 0
__ptext25 4CA 0 CODE 0
__ptext44 2018 0 CODE 0
__ptext63 2CC6 0 CODE 0
__ptext82 2D24 0 CODE 0
__end_of_DefineCharacter 266E 0 CODE 0
__Htext83 0 0 ABS 0
__Htext64 0 0 ABS 0
__Htext45 0 0 ABS 0
__Htext26 0 0 ABS 0
__Ltext83 0 0 ABS 0
__end_of_TMR2_StartTimer 2D22 0 CODE 0
__Ltext64 0 0 ABS 0
__Ltext45 0 0 ABS 0
__Ltext26 0 0 ABS 0
__ptext16 28E8 0 CODE 0
__ptext35 2B16 0 CODE 0
__ptext54 2D1A 0 CODE 0
__ptext73 266E 0 CODE 0
__Htext55 0 0 ABS 0
__Htext36 0 0 ABS 0
__Htext17 0 0 ABS 0
__Ltext55 0 0 ABS 0
__Ltext36 0 0 ABS 0
__Ltext17 0 0 ABS 0
__HbssBANK3 0 0 ABS 0
__ptext26 275A 0 CODE 0
__ptext45 26BE 0 CODE 0
__ptext64 2CB8 0 CODE 0
__ptext83 2A94 0 CODE 0
__LbssBANK3 0 0 ABS 0
__size_of_I2C2_FunctionComplete 0 0 ABS 0
Data_is_Valid@_eeprom 33 0 COMRAM 1
_I2C2_MasterTRBInsert 1B14 0 CODE 0
__Htext84 0 0 ABS 0
__Htext65 0 0 ABS 0
__Htext46 0 0 ABS 0
__Htext27 0 0 ABS 0
__Ltext84 0 0 ABS 0
__Ltext65 0 0 ABS 0
__Ltext46 0 0 ABS 0
__Ltext27 0 0 ABS 0
___llmod@divisor 18 0 COMRAM 1
__ptext17 2C9A 0 CODE 0
__ptext36 27EA 0 CODE 0
__ptext55 2B84 0 CODE 0
__end_of_SPI1_Initialize 2CB8 0 CODE 0
__pbssBANK3 300 0 BANK3 1
pull_current_status_for_display@pFreqIndex 16 0 COMRAM 1
ReadExtEEPROM@_eeprom 60 0 BANK0 1
___awmod@divisor 16 0 COMRAM 1
__Htext75 0 0 ABS 0
__Htext56 0 0 ABS 0
__Htext37 0 0 ABS 0
__Htext18 0 0 ABS 0
__end_of___lwmod 282C 0 CODE 0
__Ltext75 0 0 ABS 0
__Ltext56 0 0 ABS 0
__Ltext37 0 0 ABS 0
__Ltext18 0 0 ABS 0
__ptext27 2BC6 0 CODE 0
__ptext46 2C02 0 CODE 0
__ptext65 2CD2 0 CODE 0
__ptext84 2AC2 0 CODE 0
___lwmod@divisor 1D 0 COMRAM 1
__end_of_pull_data_for_display 27A6 0 CODE 0
__Htext85 0 0 ABS 0
__Htext66 0 0 ABS 0
__Htext47 0 0 ABS 0
__Htext28 0 0 ABS 0
__Ltext85 0 0 ABS 0
__Ltext66 0 0 ABS 0
__Ltext47 0 0 ABS 0
__Ltext28 0 0 ABS 0
__ptext18 2292 0 CODE 0
__ptext37 257C 0 CODE 0
__ptext56 2D1E 0 CODE 0
__ptext75 2D08 0 CODE 0
__Htext76 0 0 ABS 0
__Htext57 0 0 ABS 0
__Htext38 0 0 ABS 0
__Htext19 0 0 ABS 0
__Ltext76 0 0 ABS 0
__Ltext57 0 0 ABS 0
__Ltext38 0 0 ABS 0
__Ltext19 0 0 ABS 0
__ptext28 25CE 0 CODE 0
__ptext47 2CAA 0 CODE 0
__ptext66 1886 0 CODE 0
__ptext85 0 0 CODE 0
___fttol@sign1 72 0 BANK0 1
__CFG_WDTEN$OFF 0 0 ABS 0
__Htext67 0 0 ABS 0
__Htext48 0 0 ABS 0
__Htext29 0 0 ABS 0
__Ltext67 0 0 ABS 0
__Ltext48 0 0 ABS 0
__Ltext29 0 0 ABS 0
__ptext19 1F8C 0 CODE 0
__ptext38 2A66 0 CODE 0
__ptext57 2CF4 0 CODE 0
__ptext76 2B60 0 CODE 0
I2C2_MasterReadTRBBuild@ptrb 14 0 COMRAM 1
___intlo_sp 0 0 STACK 2
_eusart1RxTail 42 0 COMRAM 1
__Htext77 0 0 ABS 0
__Htext58 0 0 ABS 0
__Htext39 0 0 ABS 0
__Ltext77 0 0 ABS 0
__Ltext58 0 0 ABS 0
__Ltext39 0 0 ABS 0
__ptext29 2A36 0 CODE 0
__ptext48 270C 0 CODE 0
__ptext67 2CFE 0 CODE 0
WriteData@data 15 0 COMRAM 1
__Htext68 0 0 ABS 0
__Htext49 0 0 ABS 0
__Ltext68 0 0 ABS 0
__Ltext49 0 0 ABS 0
__ptext39 2C3A 0 CODE 0
__ptext58 1EF6 0 CODE 0
__ptext77 2D22 0 CODE 0
__Htext78 0 0 ABS 0
__Htext59 0 0 ABS 0
__Ltext78 0 0 ABS 0
__Ltext59 0 0 ABS 0
__HbssBANK4 0 0 ABS 0
__ptext49 2C88 0 CODE 0
__ptext68 209E 0 CODE 0
__LbssBANK4 0 0 ABS 0
__size_of_initDispl 0 0 ABS 0
_INTCONbits FF2 0 ABS 0
__Htext69 0 0 ABS 0
__Ltext69 0 0 ABS 0
__ptext59 2960 0 CODE 0
__ptext78 2CDE 0 CODE 0
__pbssBANK4 400 0 BANK4 1
_eusart1TxTail 45 0 COMRAM 1
__Htext79 0 0 ABS 0
__Ltext79 0 0 ABS 0
__ptext69 286E 0 CODE 0
__Hend_init CE 0 CODE 0
__Lend_init CA 0 CODE 0
__ptext79 88A 0 CODE 0
__IT_DATA EF 0 BANK0 1
___lldiv@divisor 18 0 COMRAM 1
___ftpack@exp 17 0 COMRAM 1
__size_of___lldiv 0 0 ABS 0
I2C2_MasterWriteTRBBuild@pdata 16 0 COMRAM 1
___lwdiv@divisor 16 0 COMRAM 1
__HbssBANK5 0 0 ABS 0
__LbssBANK5 0 0 ABS 0
menu_UpdateSystemDisplay@p B6 0 BANK0 1
__pbssBANK5 500 0 BANK5 1
_p_i2c2_trb_current E4 0 BANK0 1
_reset_link_layer 2C20 0 CODE 0
__size_of_menu_UpdateSystemDisplay 0 0 ABS 0
_found_subgrps DA 0 BANK0 1
__end_of___ftmul 17A6 0 CODE 0
Data_is_Valid@header 61 0 BANK0 1
__end_of___llmod 23CC 0 CODE 0
_menu_subgroup A68 0 BIGRAM 1
_OSCILLATOR_Initialize 2C88 0 CODE 0
__CFG_CP0$OFF 0 0 ABS 0
__smallconst 0 0 SMALLCONST 0
__end_of_pc_cmd_handler 2018 0 CODE 0
__size_of_SPI1_Exchange8bit 0 0 ABS 0
__HbssBANK6 0 0 ABS 0
__LbssBANK6 0 0 ABS 0
__CFG_CP1$OFF 0 0 ABS 0
__size_of___wmul 0 0 ABS 0
_found_tests DC 0 BANK0 1
__size_of_INTERRUPT_InterruptManager 0 0 ABS 0
__Hreset_vec 6 0 CODE 0
__pbssBANK6 600 0 BANK6 1
__Lreset_vec 0 0 CODE 0
__size_of_PIN_MANAGER_Initialize 0 0 ABS 0
__CFG_CP2$OFF 0 0 ABS 0
__CFG_CP3$OFF 0 0 ABS 0
__size_of_WriteString 0 0 ABS 0
_ClrDisplay 2CB8 0 CODE 0
_task_10mS 135 0 BANK1 1
__end_of_I2C2_Initialize 2960 0 CODE 0
__end_of_I2C2_Stop 286E 0 CODE 0
__size_of_EUSART1_Initialize 0 0 ABS 0
__size_of_TMR2_ISR 0 0 ABS 0
__CFG_BORV$190 0 0 ABS 0
__size_of_reset_link_layer 0 0 ABS 0
__accesstop 60 0 ABS 0
hal_i2c_get_pkt@packet 1F 0 COMRAM 1
ReadExtEEPROM@pData 72 0 BANK0 1
__Hintcode_body 0 0 ABS 0
__Lintcode_body 0 0 ABS 0
hal_i2c_get_pkt@status 32 0 COMRAM 1
_rx_link_layer E6 0 BANK0 1
_tx_link_layer EC 0 BANK0 1
__CFG_PBADEN$ON 0 0 ABS 0
?_timePassed 16 0 COMRAM 1
intlevel0 0 0 CODE 0
menu_clear@x 17 0 COMRAM 1
_SSP1STAT FC7 0 ABS 0
intlevel1 0 0 CODE 0
_SSP2STAT F6D 0 ABS 0
__CFG_WRTB$OFF 0 0 ABS 0
intlevel2 0 0 CODE 0
___lltoft@exp 24 0 COMRAM 1
pc_cmd_handler@r_code 22 0 COMRAM 1
intlevel3 0 0 CODE 0
_get_user_input 1C7C 0 CODE 0
__CFG_WRTC$OFF 0 0 ABS 0
__size_of_TMR2_StartTimer 0 0 ABS 0
_SSP1CON1bits FC6 0 ABS 0
_SSP2CON1bits F6C 0 ABS 0
__end_of_I2C2_MasterReadTRBBuild 26BE 0 CODE 0
_isdigit$3811 15 0 COMRAM 1
SetContrast@contr 16 0 COMRAM 1
_SSP2CON2bits F6B 0 ABS 0
__CFG_WRTD$OFF 0 0 ABS 0
_I2C2_ISR 88A 0 CODE 0
__IT_SAVE_BSR F2 0 BANK0 1
__size_of_WriteIns 0 0 ABS 0
_TMR2_ISR 2D08 0 CODE 0
_current_freq_index D8 0 BANK0 1
__size_of_pc_cmd_handler 0 0 ABS 0
menu_clear@y 16 0 COMRAM 1
SetPostion@pos 16 0 COMRAM 1
__size_of_TMR2_DefaultInterruptHandler 0 0 ABS 0
hal_i2c_get_pkt@readTRB 28 0 COMRAM 1
__end_of_DisplayOnOff 2CD2 0 CODE 0
__size_of___lwmod 0 0 ABS 0
__CFG_CPB$OFF 0 0 ABS 0
__size_of_hal_i2c_get_pkt 0 0 ABS 0
__HidataBANK3 0 0 ABS 0
__LidataBANK3 0 0 ABS 0
__pidataBANK3 2480 0 CODE 0
__size_of_pull_current_status_for_display 0 0 ABS 0
__end_of___wmul 2B3C 0 CODE 0
__size_of_menu_NewMenu 0 0 ABS 0
__CFG_CPD$OFF 0 0 ABS 0
start_initialization 1966 0 CODE 0
___lldiv@quotient 1C 0 COMRAM 1
I2C2_MasterReadTRBBuild@address 19 0 COMRAM 1
___lwdiv@quotient 19 0 COMRAM 1
_i2c2_trb_count 47 0 COMRAM 1
menu_set_xy@new_line 14 0 COMRAM 1
?_GetSysTick 14 0 COMRAM 1
_task10mS 1D26 0 CODE 0
menu_UpdateSystemDisplay@temp2 BD 0 BANK0 1
TMR2_SetInterruptHandler@InterruptHandler 14 0 COMRAM 1
pull_current_status_for_display@_sysMode 18 0 COMRAM 1
_SPI1_Exchange8bit 2C9A 0 CODE 0
_initSysTick 2C54 0 CODE 0
__CFG_BOREN$SBORDIS 0 0 ABS 0
__end_of_EUSART1_Transmit_ISR 2AC2 0 CODE 0
__end_of_menu_clear 2480 0 CODE 0
__CFG_IESO$OFF 0 0 ABS 0
__end_of_Data_is_Valid 28AC 0 CODE 0
menu_UpdateSystemDisplay@RemainingTime B8 0 BANK0 1
__end_of___fttol 1590 0 CODE 0
__size_of_OSCILLATOR_Initialize 0 0 ABS 0
__end_of_menu_NewMenu 88A 0 CODE 0
I2C2_MasterWriteTRBBuild@address 19 0 COMRAM 1
I2C2_MasterTRBInsert@count 19 0 COMRAM 1
__size_of_EUSART1_Receive_ISR 0 0 ABS 0
_AD5930_shutdown 28E8 0 CODE 0
__size_of_sprintf 0 0 ABS 0
__size_of___awmod 0 0 ABS 0
__CFG_DEBUG$ON 0 0 ABS 0
__end_of_time FF07 0 MEDIUMCONST 0
_menu_NewMenu 4CA 0 CODE 0
__end_of_ReadExtEEPROM 2BE4 0 CODE 0
__end_of_I2C2_MasterTRBInsert 1BCE 0 CODE 0
__end_of_SPI1_Exchange8bit 2CAA 0 CODE 0
__initialization 1966 0 CODE 0
__size_of_TMR2_CallBack 0 0 ABS 0
hal_i2c_get_pkt@i2cAddr 27 0 COMRAM 1
__end_of_strncpy 2222 0 CODE 0
_menu_has_changed F6 0 BANK0 1
__size_of_TMR2_Initialize 0 0 ABS 0
___llmod@dividend 14 0 COMRAM 1
___awmod@dividend 14 0 COMRAM 1
___lwmod@dividend 1B 0 COMRAM 1
ReadExtEEPROM@NumBytes 74 0 BANK0 1
__activetblptr 3 0 ABS 0
_RX_Buf_Debug 142 0 BANK1 1
_TX_Buf_Debug 162 0 BANK1 1
___llmod@counter 1C 0 COMRAM 1
hal_i2c_get_pkt@timeOut 25 0 COMRAM 1
menu_UpdateSystemDisplay@opMode 64 0 BANK0 1
__size_of_initSysTick 0 0 ABS 0
___awmod@counter 18 0 COMRAM 1
___wmul@product 18 0 COMRAM 1
_menu_sel_page E0 0 BANK0 1
_Data_is_Valid 286E 0 CODE 0
___lwmod@counter 1F 0 COMRAM 1
AD5930_write_def_control@F7987 D0 0 BANK0 1
__end_of_get_user_input 1D26 0 CODE 0
__end_of_initDebounce 270C 0 CODE 0
_ReadExtEEPROM 2BC6 0 CODE 0
__size_of___ftmul 0 0 ABS 0
__size_of_task10mS 0 0 ABS 0
I2C2_ISR@i2c_bytes_left 3E 0 COMRAM 1
__end_of_initDispl 1F8C 0 CODE 0
__size_of_get_user_input 0 0 ABS 0
_menu_set_xy 2C3A 0 CODE 0
sprintf@c 36 0 COMRAM 1
__size_of___llmod 0 0 ABS 0
__size_of_ClrDisplay 0 0 ABS 0
__size_of_CheckBusy 0 0 ABS 0
___lldiv@dividend 14 0 COMRAM 1
isdigit@c 16 0 COMRAM 1
__size_of_I2C2_MasterWriteTRBBuild 0 0 ABS 0
%segments
reset_vec 0 5 CODE 0 0
intcode 8 2D14 CODE 8 0
mediumconst FEDC FFFF MEDIUMCONST FEDC 0
config 300000 30000D CONFIG 300000 0
idloc 200000 200007 IDLOC 200000 0
cstackCOMRAM 1 4C COMRAM 1 1
cstackBANK0 60 FF BANK0 60 1
bssBANK2 200 2CF BANK2 200 1
bssBANK4 400 4CF BANK4 400 1
bssBANK1 100 1ED BANK1 100 1
bssBANK5 500 584 BANK5 500 1
bssBANK3 300 3D5 BANK3 300 1
bssBANK6 600 67F BANK6 600 1
bssBIGRAM 680 BE7 BIGRAM 680 1
text50 2D16 2D25 CODE 2D16 0
%locals
dist/default/debug\LED_Controller.X.debug.obj
C:\Program Files (x86)\Microchip\xc8\v1.38\include\pic18f46k22.h
C:\Users\Nick\AppData\Local\Temp\s9s4.
8144 1966 0 CODE 0
8146 1966 0 CODE 0
8149 1966 0 CODE 0
8405 1966 0 CODE 0
8406 1968 0 CODE 0
8407 196A 0 CODE 0
8408 196C 0 CODE 0
8409 196E 0 CODE 0
8410 1970 0 CODE 0
8411 1972 0 CODE 0
8412 1976 0 CODE 0
8413 197A 0 CODE 0
8414 197A 0 CODE 0
8415 197C 0 CODE 0
8416 1980 0 CODE 0
8417 1982 0 CODE 0
8418 1984 0 CODE 0
8422 1986 0 CODE 0
8423 1988 0 CODE 0
8424 198A 0 CODE 0
8425 198C 0 CODE 0
8426 198E 0 CODE 0
8427 1990 0 CODE 0
8428 1992 0 CODE 0
8429 1996 0 CODE 0
8430 199A 0 CODE 0
8431 199A 0 CODE 0
8432 199C 0 CODE 0
8433 19A0 0 CODE 0
8434 19A2 0 CODE 0
8435 19A4 0 CODE 0
8439 19A6 0 CODE 0
8440 19A8 0 CODE 0
8441 19AA 0 CODE 0
8442 19AC 0 CODE 0
8443 19AE 0 CODE 0
8444 19B0 0 CODE 0
8445 19B2 0 CODE 0
8446 19B6 0 CODE 0
8447 19BA 0 CODE 0
8448 19BA 0 CODE 0
8449 19BC 0 CODE 0
8450 19C0 0 CODE 0
8451 19C2 0 CODE 0
8452 19C4 0 CODE 0
8456 19C6 0 CODE 0
8457 19CA 0 CODE 0
8458 19CE 0 CODE 0
8459 19CE 0 CODE 0
8460 19D0 0 CODE 0
8461 19D2 0 CODE 0
8462 19D4 0 CODE 0
8463 19D6 0 CODE 0
8464 19D8 0 CODE 0
8467 19DA 0 CODE 0
8468 19DE 0 CODE 0
8469 19E0 0 CODE 0
8470 19E0 0 CODE 0
8471 19E2 0 CODE 0
8472 19E4 0 CODE 0
8475 19E6 0 CODE 0
8476 19EA 0 CODE 0
8477 19EC 0 CODE 0
8478 19EC 0 CODE 0
8479 19EE 0 CODE 0
8480 19F0 0 CODE 0
8483 19F2 0 CODE 0
8484 19F6 0 CODE 0
8485 19F8 0 CODE 0
8486 19F8 0 CODE 0
8487 19FA 0 CODE 0
8488 19FC 0 CODE 0
8491 19FE 0 CODE 0
8492 1A02 0 CODE 0
8493 1A04 0 CODE 0
8494 1A04 0 CODE 0
8495 1A06 0 CODE 0
8496 1A08 0 CODE 0
8499 1A0A 0 CODE 0
8500 1A0E 0 CODE 0
8501 1A10 0 CODE 0
8502 1A10 0 CODE 0
8503 1A12 0 CODE 0
8504 1A14 0 CODE 0
8507 1A16 0 CODE 0
8508 1A1A 0 CODE 0
8509 1A1C 0 CODE 0
8510 1A1C 0 CODE 0
8511 1A1E 0 CODE 0
8512 1A20 0 CODE 0
8515 1A22 0 CODE 0
8516 1A26 0 CODE 0
8517 1A28 0 CODE 0
8518 1A28 0 CODE 0
8519 1A2A 0 CODE 0
8520 1A2C 0 CODE 0
8523 1A2E 0 CODE 0
8524 1A32 0 CODE 0
8525 1A34 0 CODE 0
8526 1A34 0 CODE 0
8527 1A36 0 CODE 0
8528 1A38 0 CODE 0
8534 1A3A 0 CODE 0
8536 1A3A 0 CODE 0
8537 1A3C 0 CODE 0
8538 1A3E 0 CODE 0
8539 1A40 0 CODE 0
main.c
132 1186 0 CODE 0
134 1186 0 CODE 0
136 118C 0 CODE 0
137 1190 0 CODE 0
138 1194 0 CODE 0
139 1198 0 CODE 0
140 119C 0 CODE 0
141 119E 0 CODE 0
146 11A0 0 CODE 0
148 11A4 0 CODE 0
149 11A8 0 CODE 0
151 11C8 0 CODE 0
152 11D4 0 CODE 0
153 11DA 0 CODE 0
154 11E6 0 CODE 0
155 11EC 0 CODE 0
165 11F8 0 CODE 0
167 1208 0 CODE 0
168 1218 0 CODE 0
165 121C 0 CODE 0
173 1222 0 CODE 0
177 1226 0 CODE 0
179 123E 0 CODE 0
180 1242 0 CODE 0
182 1254 0 CODE 0
184 126C 0 CODE 0
185 127E 0 CODE 0
187 1282 0 CODE 0
190 129A 0 CODE 0
191 12C6 0 CODE 0
195 12D8 0 CODE 0
196 12DC 0 CODE 0
198 12E4 0 CODE 0
199 12EE 0 CODE 0
174 12F4 0 CODE 0
Source/system_Tick.c
117 24D4 0 CODE 0
119 24D4 0 CODE 0
121 24E0 0 CODE 0
123 24EC 0 CODE 0
126 250A 0 CODE 0
Source/system_Tick.c
69 2CEA 0 CODE 0
71 2CEA 0 CODE 0
72 2CF2 0 CODE 0
main.c
286 1D26 0 CODE 0
288 1D26 0 CODE 0
289 1D3A 0 CODE 0
290 1D4E 0 CODE 0
291 1D62 0 CODE 0
292 1D76 0 CODE 0
293 1D8A 0 CODE 0
294 1D9E 0 CODE 0
295 1DB2 0 CODE 0
300 1DC6 0 CODE 0
Source/user_debounce.c
79 1A44 0 CODE 0
81 1A44 0 CODE 0
82 1A60 0 CODE 0
84 1A66 0 CODE 0
85 1A70 0 CODE 0
88 1A72 0 CODE 0
91 1A7C 0 CODE 0
93 1A8A 0 CODE 0
94 1A96 0 CODE 0
96 1AA6 0 CODE 0
98 1AB4 0 CODE 0
99 1AC0 0 CODE 0
102 1AD0 0 CODE 0
103 1AF0 0 CODE 0
105 1B02 0 CODE 0
main.c
657 D4E 0 CODE 0
660 D4E 0 CODE 0
661 D58 0 CODE 0
663 D62 0 CODE 0
666 D64 0 CODE 0
667 D8E 0 CODE 0
670 D90 0 CODE 0
671 DBC 0 CODE 0
672 DC0 0 CODE 0
674 DC2 0 CODE 0
675 DCC 0 CODE 0
676 DD0 0 CODE 0
678 DF6 0 CODE 0
663 DF8 0 CODE 0
679 E0E 0 CODE 0
680 E4C 0 CODE 0
681 E8A 0 CODE 0
683 E8C 0 CODE 0
681 EA8 0 CODE 0
685 EB8 0 CODE 0
686 EE4 0 CODE 0
687 EE8 0 CODE 0
688 EF4 0 CODE 0
690 EFC 0 CODE 0
695 EFE 0 CODE 0
697 F0A 0 CODE 0
698 F34 0 CODE 0
699 F3E 0 CODE 0
701 F64 0 CODE 0
702 F66 0 CODE 0
704 F6C 0 CODE 0
705 F76 0 CODE 0
706 F7A 0 CODE 0
707 F7C 0 CODE 0
main.c
417 1C7C 0 CODE 0
419 1C7C 0 CODE 0
421 1C8E 0 CODE 0
423 1C92 0 CODE 0
425 1CA4 0 CODE 0
426 1CAC 0 CODE 0
428 1CB0 0 CODE 0
431 1CB4 0 CODE 0
433 1CC6 0 CODE 0
435 1CCA 0 CODE 0
437 1CDC 0 CODE 0
439 1CE0 0 CODE 0
441 1CF2 0 CODE 0
443 1CF6 0 CODE 0
445 1D08 0 CODE 0
447 1D0C 0 CODE 0
449 1D1E 0 CODE 0
451 1D22 0 CODE 0
Source/user_debounce.c
117 2AEE 0 CODE 0
119 2AEE 0 CODE 0
Source/lcd_8bit.c
129 2528 0 CODE 0
133 2528 0 CODE 0
135 2552 0 CODE 0
Source/AD5930.c
126 12F6 0 CODE 0
128 12F6 0 CODE 0
129 12FE 0 CODE 0
131 1310 0 CODE 0
138 1314 0 CODE 0
142 1386 0 CODE 0
143 1388 0 CODE 0
144 1392 0 CODE 0
147 13C6 0 CODE 0
148 13C8 0 CODE 0
149 13D0 0 CODE 0
150 13D8 0 CODE 0
151 13DA 0 CODE 0
152 13E4 0 CODE 0
153 1434 0 CODE 0
154 1436 0 CODE 0
155 143E 0 CODE 0
156 1446 0 CODE 0
157 1448 0 CODE 0
C:\Program Files (x86)\Microchip\xc8\v1.38\sources\common\lltoft.c
35 23CC 0 CODE 0
38 23CC 0 CODE 0
41 23D0 0 CODE 0
42 23D2 0 CODE 0
43 23DC 0 CODE 0
41 23DE 0 CODE 0
45 2402 0 CODE 0
C:\Program Files (x86)\Microchip\xc8\v1.38\sources\common\fttol.c
44 144C 0 CODE 0
49 144C 0 CODE 0
50 1472 0 CODE 0
51 1486 0 CODE 0
52 14BA 0 CODE 0
53 14BE 0 CODE 0
54 14D0 0 CODE 0
55 14EC 0 CODE 0
56 14F2 0 CODE 0
57 14F8 0 CODE 0
58 1504 0 CODE 0
60 1518 0 CODE 0
61 1524 0 CODE 0
62 152A 0 CODE 0
63 152C 0 CODE 0
64 1534 0 CODE 0
66 1548 0 CODE 0
67 1554 0 CODE 0
65 1558 0 CODE 0
70 1562 0 CODE 0
71 156C 0 CODE 0
72 157E 0 CODE 0
C:\Program Files (x86)\Microchip\xc8\v1.38\sources\common\ftmul.c
62 16B2 0 CODE 0
67 16B2 0 CODE 0
68 16CC 0 CODE 0
69 16DA 0 CODE 0
70 16F4 0 CODE 0
71 1702 0 CODE 0
72 1708 0 CODE 0
73 170C 0 CODE 0
74 1710 0 CODE 0
75 1714 0 CODE 0
77 1716 0 CODE 0
78 1718 0 CODE 0
79 1724 0 CODE 0
134 1730 0 CODE 0
136 1734 0 CODE 0
137 1738 0 CODE 0
138 1744 0 CODE 0
139 174C 0 CODE 0
140 1754 0 CODE 0
143 1758 0 CODE 0
145 175C 0 CODE 0
146 1760 0 CODE 0
147 176C 0 CODE 0
148 1774 0 CODE 0
149 177C 0 CODE 0
156 1780 0 CODE 0
C:\Program Files (x86)\Microchip\xc8\v1.38\sources\common\ftadd.c
86 AFE 0 CODE 0
90 AFE 0 CODE 0
91 B16 0 CODE 0
92 B2E 0 CODE 0
93 B56 0 CODE 0
94 B64 0 CODE 0
95 B8C 0 CODE 0
96 B9A 0 CODE 0
97 BA0 0 CODE 0
98 BA6 0 CODE 0
99 BAA 0 CODE 0
100 BB0 0 CODE 0
101 BB4 0 CODE 0
102 BB8 0 CODE 0
103 BCA 0 CODE 0
104 BCE 0 CODE 0
106 BE0 0 CODE 0
110 BEC 0 CODE 0
111 BF6 0 CODE 0
112 BFA 0 CODE 0
114 C18 0 CODE 0
115 C22 0 CODE 0
113 C26 0 CODE 0
117 C34 0 CODE 0
121 C40 0 CODE 0
122 C4A 0 CODE 0
123 C4E 0 CODE 0
125 C6C 0 CODE 0
126 C76 0 CODE 0
124 C7A 0 CODE 0
129 C86 0 CODE 0
131 C8C 0 CODE 0
132 C9E 0 CODE 0
133 CB0 0 CODE 0
134 CB0 0 CODE 0
136 CB6 0 CODE 0
137 CC8 0 CODE 0
139 CDA 0 CODE 0
140 CE0 0 CODE 0
141 CF8 0 CODE 0
142 CFE 0 CODE 0
143 D10 0 CODE 0
144 D22 0 CODE 0
146 D28 0 CODE 0
C:\Program Files (x86)\Microchip\xc8\v1.38\sources\common\float.c
62 1BCE 0 CODE 0
64 1BCE 0 CODE 0
65 1BDE 0 CODE 0
67 1BEC 0 CODE 0
68 1BEE 0 CODE 0
66 1BF6 0 CODE 0
71 1C14 0 CODE 0
72 1C16 0 CODE 0
73 1C22 0 CODE 0
70 1C2A 0 CODE 0
76 1C48 0 CODE 0
77 1C4A 0 CODE 0
75 1C52 0 CODE 0
79 1C5C 0 CODE 0
80 1C5E 0 CODE 0
81 1C60 0 CODE 0
82 1C64 0 CODE 0
83 1C68 0 CODE 0
84 1C6C 0 CODE 0
85 1C6E 0 CODE 0
Source/AD5930.c
86 28AC 0 CODE 0
88 28AC 0 CODE 0
90 28B4 0 CODE 0
92 28B6 0 CODE 0
93 28BE 0 CODE 0
94 28C0 0 CODE 0
95 28C2 0 CODE 0
96 28C4 0 CODE 0
97 28C6 0 CODE 0
98 28C8 0 CODE 0
99 28CA 0 CODE 0
100 28CC 0 CODE 0
101 28CE 0 CODE 0
102 28D0 0 CODE 0
103 28D2 0 CODE 0
104 28D4 0 CODE 0
106 28D6 0 CODE 0
107 28D8 0 CODE 0
108 28DE 0 CODE 0
109 28E4 0 CODE 0
Source/AD5930.c
169 28E8 0 CODE 0
171 28E8 0 CODE 0
172 28F0 0 CODE 0
173 28F8 0 CODE 0
174 28FA 0 CODE 0
175 28FC 0 CODE 0
176 28FE 0 CODE 0
177 2900 0 CODE 0
178 2902 0 CODE 0
179 2904 0 CODE 0
180 2906 0 CODE 0
181 2908 0 CODE 0
182 290A 0 CODE 0
183 290C 0 CODE 0
184 290E 0 CODE 0
186 2910 0 CODE 0
187 2912 0 CODE 0
188 2918 0 CODE 0
189 291E 0 CODE 0
191 2920 0 CODE 0
mcc_generated_files/spi1.c
77 2C9A 0 CODE 0
80 2C9C 0 CODE 0
82 2C9E 0 CODE 0
86 2CA2 0 CODE 0
84 2CA2 0 CODE 0
88 2CA6 0 CODE 0
89 2CA8 0 CODE 0
Source/pc_interface.c
128 2292 0 CODE 0
130 2292 0 CODE 0
132 2296 0 CODE 0
133 229E 0 CODE 0
135 22A2 0 CODE 0
137 22A8 0 CODE 0
164 22AA 0 CODE 0
137 22AE 0 CODE 0
167 22FA 0 CODE 0
Source/pc_interface.c
88 1F8C 0 CODE 0
90 1F8C 0 CODE 0
91 1F90 0 CODE 0
93 1F94 0 CODE 0
95 1FAC 0 CODE 0
97 1FCA 0 CODE 0
100 1FCC 0 CODE 0
101 1FD6 0 CODE 0
102 1FDC 0 CODE 0
104 1FDE 0 CODE 0
105 1FE2 0 CODE 0
106 1FEC 0 CODE 0
109 1FF2 0 CODE 0
111 1FF4 0 CODE 0
115 1FFA 0 CODE 0
97 1FFC 0 CODE 0
115 2014 0 CODE 0
97 2016 0 CODE 0
Source/Serial_Buffer.c
145 1590 0 CODE 0
147 1592 0 CODE 0
150 1596 0 CODE 0
152 159C 0 CODE 0
154 15A0 0 CODE 0
158 15AA 0 CODE 0
160 15DA 0 CODE 0
161 163A 0 CODE 0
162 16A4 0 CODE 0
156 16A6 0 CODE 0
171 16AE 0 CODE 0
C:\Program Files (x86)\Microchip\xc8\v1.38\sources\common\awmod.c
8 2222 0 CODE 0
13 2222 0 CODE 0
14 2226 0 CODE 0
15 222A 0 CODE 0
16 2232 0 CODE 0
18 2236 0 CODE 0
19 223A 0 CODE 0
20 2242 0 CODE 0
21 224A 0 CODE 0
22 224E 0 CODE 0
23 2250 0 CODE 0
24 2256 0 CODE 0
22 2258 0 CODE 0
27 225C 0 CODE 0
28 2268 0 CODE 0
29 2270 0 CODE 0
30 2276 0 CODE 0
32 227A 0 CODE 0
33 2280 0 CODE 0
34 2288 0 CODE 0
Source/serial_data_link_layer.c
243 1E60 0 CODE 0
245 1E60 0 CODE 0
248 1E64 0 CODE 0
250 1E7E 0 CODE 0
252 1E82 0 CODE 0
254 1E9C 0 CODE 0
256 1EA0 0 CODE 0
258 1EBA 0 CODE 0
259 1EBE 0 CODE 0
263 1EC2 0 CODE 0
266 1EC6 0 CODE 0
268 1ECC 0 CODE 0
270 1EE0 0 CODE 0
271 1EEE 0 CODE 0
273 1EF2 0 CODE 0
Source/serial_data_link_layer.c
118 2C20 0 CODE 0
120 2C20 0 CODE 0
121 2C26 0 CODE 0
123 2C2C 0 CODE 0
124 2C32 0 CODE 0
125 2C38 0 CODE 0
Source/Menu.c
95 299A 0 CODE 0
97 299A 0 CODE 0
98 29A4 0 CODE 0
99 29A8 0 CODE 0
100 29AC 0 CODE 0
102 29BE 0 CODE 0
103 29C2 0 CODE 0
104 29C8 0 CODE 0
105 29CC 0 CODE 0
Source/Menu.c
364 4CA 0 CODE 0
366 4CA 0 CODE 0
367 4D4 0 CODE 0
369 4DA 0 CODE 0
372 4DE 0 CODE 0
376 4E0 0 CODE 0
377 4EA 0 CODE 0
378 4F6 0 CODE 0
379 500 0 CODE 0
380 50C 0 CODE 0
381 516 0 CODE 0
382 522 0 CODE 0
383 52C 0 CODE 0
384 538 0 CODE 0
385 546 0 CODE 0
387 548 0 CODE 0
388 552 0 CODE 0
389 55E 0 CODE 0
391 560 0 CODE 0
395 56A 0 CODE 0
398 598 0 CODE 0
400 5A4 0 CODE 0
402 5C2 0 CODE 0
403 5CA 0 CODE 0
405 5D4 0 CODE 0
406 5F0 0 CODE 0
408 604 0 CODE 0
409 682 0 CODE 0
410 68C 0 CODE 0
412 698 0 CODE 0
413 6BC 0 CODE 0
415 6D0 0 CODE 0
416 74E 0 CODE 0
417 758 0 CODE 0
419 764 0 CODE 0
420 788 0 CODE 0
422 79C 0 CODE 0
423 81A 0 CODE 0
424 824 0 CODE 0
427 830 0 CODE 0
428 83E 0 CODE 0
431 840 0 CODE 0
432 84A 0 CODE 0
433 856 0 CODE 0
435 858 0 CODE 0
439 864 0 CODE 0
372 866 0 CODE 0
main.c
323 275A 0 CODE 0
325 275A 0 CODE 0
326 27A4 0 CODE 0
Source/eeprom.c
211 2BC6 0 CODE 0
222 2BC6 0 CODE 0
Source/Menu.c
575 25CE 0 CODE 0
577 25D0 0 CODE 0
580 25DE 0 CODE 0
581 2606 0 CODE 0
582 260A 0 CODE 0
583 260E 0 CODE 0
584 2612 0 CODE 0
585 2616 0 CODE 0
586 261C 0 CODE 0
Source/Menu.c
544 2A36 0 CODE 0
546 2A36 0 CODE 0
547 2A5E 0 CODE 0
548 2A64 0 CODE 0
Source/Menu.c
627 2428 0 CODE 0
629 2428 0 CODE 0
630 242C 0 CODE 0
632 2430 0 CODE 0
634 243C 0 CODE 0
635 2448 0 CODE 0
634 2470 0 CODE 0
632 2474 0 CODE 0
637 2478 0 CODE 0
638 247E 0 CODE 0
Source/Menu.c
460 CE 0 CODE 0
463 CE 0 CODE 0
464 D8 0 CODE 0
465 E2 0 CODE 0
466 EE 0 CODE 0
467 F8 0 CODE 0
468 102 0 CODE 0
469 108 0 CODE 0
472 11A 0 CODE 0
474 136 0 CODE 0
476 13E 0 CODE 0
477 15A 0 CODE 0
478 176 0 CODE 0
479 19A 0 CODE 0
480 1BE 0 CODE 0
483 1C0 0 CODE 0
484 1DC 0 CODE 0
486 220 0 CODE 0
487 282 0 CODE 0
488 2D6 0 CODE 0
489 30A 0 CODE 0
490 33E 0 CODE 0
492 340 0 CODE 0
490 35C 0 CODE 0
494 36C 0 CODE 0
495 378 0 CODE 0
497 3AE 0 CODE 0
498 3DA 0 CODE 0
500 3E6 0 CODE 0
502 400 0 CODE 0
503 40E 0 CODE 0
504 41A 0 CODE 0
500 420 0 CODE 0
511 428 0 CODE 0
514 42C 0 CODE 0
517 430 0 CODE 0
519 436 0 CODE 0
508 438 0 CODE 0
521 44E 0 CODE 0
522 458 0 CODE 0
523 464 0 CODE 0
524 46E 0 CODE 0
525 47A 0 CODE 0
526 484 0 CODE 0
527 490 0 CODE 0
528 49A 0 CODE 0
530 4A6 0 CODE 0
532 4BC 0 CODE 0
533 4C2 0 CODE 0
C:\Program Files (x86)\Microchip\xc8\v1.38\sources\common\strncpy.c
8 21A4 0 CODE 0
18 21A4 0 CODE 0
19 21AC 0 CODE 0
20 21AE 0 CODE 0
21 21B4 0 CODE 0
19 21F6 0 CODE 0
25 2200 0 CODE 0
24 2210 0 CODE 0
C:\Program Files (x86)\Microchip\xc8\v1.38\sources\common\doprnt.c
492 F7E 0 CODE 0
533 F7E 0 CODE 0
536 F86 0 CODE 0
538 F88 0 CODE 0
541 F90 0 CODE 0
542 FA0 0 CODE 0
546 FA2 0 CODE 0
548 FAA 0 CODE 0
597 FAE 0 CODE 0
598 FC4 0 CODE 0
600 FCC 0 CODE 0
601 FE8 0 CODE 0
602 1016 0 CODE 0
818 102E 0 CODE 0
822 1032 0 CODE 0
635 1034 0 CODE 0
1286 1058 0 CODE 0
1305 1070 0 CODE 0
1306 107C 0 CODE 0
1305 10A2 0 CODE 0
1381 10A6 0 CODE 0
1382 10BC 0 CODE 0
1384 10CA 0 CODE 0
1428 10D2 0 CODE 0
1430 10DA 0 CODE 0
1431 10EA 0 CODE 0
1472 10F8 0 CODE 0
1474 10FC 0 CODE 0
1489 10FE 0 CODE 0
1524 1146 0 CODE 0
1474 1156 0 CODE 0
536 115E 0 CODE 0
1538 1178 0 CODE 0
C:\Program Files (x86)\Microchip\xc8\v1.38\sources\common\isdigit.c
8 2BE4 0 CODE 0
14 2BE6 0 CODE 0
C:\Program Files (x86)\Microchip\xc8\v1.38\sources\common\Umul16.c
15 2B16 0 CODE 0
37 2B16 0 CODE 0
38 2B22 0 CODE 0
39 2B2A 0 CODE 0
52 2B32 0 CODE 0
C:\Program Files (x86)\Microchip\xc8\v1.38\sources\common\lwmod.c
8 27EA 0 CODE 0
13 27EA 0 CODE 0
14 27F2 0 CODE 0
15 27F6 0 CODE 0
16 27F8 0 CODE 0
17 27FE 0 CODE 0
15 2800 0 CODE 0
20 2804 0 CODE 0
21 2810 0 CODE 0
22 2818 0 CODE 0
23 281E 0 CODE 0
24 2822 0 CODE 0
25 2822 0 CODE 0
26 282A 0 CODE 0
C:\Program Files (x86)\Microchip\xc8\v1.38\sources\common\lwdiv.c
8 257C 0 CODE 0
14 257C 0 CODE 0
15 2584 0 CODE 0
16 258C 0 CODE 0
17 2590 0 CODE 0
18 2592 0 CODE 0
19 2598 0 CODE 0
17 259A 0 CODE 0
22 259E 0 CODE 0
23 25A4 0 CODE 0
24 25B0 0 CODE 0
25 25B8 0 CODE 0
27 25BA 0 CODE 0
28 25C0 0 CODE 0
29 25C4 0 CODE 0
30 25C4 0 CODE 0
31 25CC 0 CODE 0
main.c
378 2A66 0 CODE 0
380 2A66 0 CODE 0
381 2A76 0 CODE 0
382 2A86 0 CODE 0
384 2A92 0 CODE 0
Source/Menu.c
557 2C3A 0 CODE 0
559 2C3C 0 CODE 0
560 2C4A 0 CODE 0
562 2C4A 0 CODE 0
563 2C4E 0 CODE 0
564 2C52 0 CODE 0
Source/Menu.c
608 22FE 0 CODE 0
610 22FE 0 CODE 0
612 2302 0 CODE 0
614 2304 0 CODE 0
615 232A 0 CODE 0
616 232E 0 CODE 0
612 2330 0 CODE 0
618 235E 0 CODE 0
619 2364 0 CODE 0
Source/Menu.c
594 29CE 0 CODE 0
596 29D0 0 CODE 0
597 29F8 0 CODE 0
598 29FA 0 CODE 0
599 2A00 0 CODE 0
C:\Program Files (x86)\Microchip\xc8\v1.38\sources\common\llmod.c
8 2366 0 CODE 0
13 2366 0 CODE 0
14 2372 0 CODE 0
15 2376 0 CODE 0
16 2378 0 CODE 0
17 2382 0 CODE 0
15 2384 0 CODE 0
20 2388 0 CODE 0
21 239C 0 CODE 0
22 23AC 0 CODE 0
23 23B6 0 CODE 0
24 23BA 0 CODE 0
25 23BA 0 CODE 0
26 23CA 0 CODE 0
C:\Program Files (x86)\Microchip\xc8\v1.38\sources\common\lldiv.c
8 2122 0 CODE 0
14 2122 0 CODE 0
15 2132 0 CODE 0
16 213E 0 CODE 0
17 2142 0 CODE 0
18 2144 0 CODE 0
19 214E 0 CODE 0
17 2150 0 CODE 0
22 2154 0 CODE 0
23 215E 0 CODE 0
24 2172 0 CODE 0
25 2182 0 CODE 0
27 2184 0 CODE 0
28 218E 0 CODE 0
29 2192 0 CODE 0
30 2192 0 CODE 0
31 21A2 0 CODE 0
main.c
261 2018 0 CODE 0
263 2018 0 CODE 0
266 201C 0 CODE 0
267 202C 0 CODE 0
268 203C 0 CODE 0
269 204C 0 CODE 0
270 205C 0 CODE 0
271 206C 0 CODE 0
272 207C 0 CODE 0
273 208C 0 CODE 0
275 209C 0 CODE 0
Source/user_debounce.c
62 26BE 0 CODE 0
64 26BE 0 CODE 0
65 26CE 0 CODE 0
66 26DA 0 CODE 0
67 26EA 0 CODE 0
68 26FA 0 CODE 0
69 270A 0 CODE 0
mcc_generated_files/mcc.c
111 2C02 0 CODE 0
114 2C02 0 CODE 0
115 2C06 0 CODE 0
116 2C0A 0 CODE 0
117 2C0E 0 CODE 0
118 2C12 0 CODE 0
119 2C16 0 CODE 0
120 2C1A 0 CODE 0
121 2C1E 0 CODE 0
mcc_generated_files/spi1.c
63 2CAA 0 CODE 0
68 2CAA 0 CODE 0
71 2CAE 0 CODE 0
74 2CB2 0 CODE 0
75 2CB6 0 CODE 0
mcc_generated_files/pin_manager.c
51 270C 0 CODE 0
56 270C 0 CODE 0
57 2710 0 CODE 0
58 2714 0 CODE 0
59 2718 0 CODE 0
60 271C 0 CODE 0
65 2720 0 CODE 0
66 2724 0 CODE 0
67 2728 0 CODE 0
68 272C 0 CODE 0
69 2730 0 CODE 0
74 2734 0 CODE 0
75 273A 0 CODE 0
76 2740 0 CODE 0
77 2746 0 CODE 0
78 274C 0 CODE 0
83 2752 0 CODE 0
84 2756 0 CODE 0
91 2758 0 CODE 0
mcc_generated_files/mcc.c
123 2C88 0 CODE 0
126 2C88 0 CODE 0
128 2C8C 0 CODE 0
130 2C90 0 CODE 0
136 2C94 0 CODE 0
134 2C94 0 CODE 0
mcc_generated_files/interrupt_manager.c
51 2D16 0 CODE 0
54 2D16 0 CODE 0
55 2D18 0 CODE 0
mcc_generated_files/i2c2.c
198 2924 0 CODE 0
200 2924 0 CODE 0
201 2930 0 CODE 0
202 293C 0 CODE 0
203 2940 0 CODE 0
205 2944 0 CODE 0
208 294A 0 CODE 0
210 294E 0 CODE 0
212 2952 0 CODE 0
214 2956 0 CODE 0
218 295A 0 CODE 0
220 295C 0 CODE 0
222 295E 0 CODE 0
mcc_generated_files/eusart1.c
75 2A02 0 CODE 0
78 2A02 0 CODE 0
79 2A04 0 CODE 0
84 2A06 0 CODE 0
87 2A0A 0 CODE 0
90 2A0E 0 CODE 0
93 2A12 0 CODE 0
96 2A16 0 CODE 0
100 2A1A 0 CODE 0
101 2A1E 0 CODE 0
102 2A22 0 CODE 0
104 2A26 0 CODE 0
105 2A2A 0 CODE 0
106 2A2E 0 CODE 0
109 2A32 0 CODE 0
110 2A34 0 CODE 0
Source/system_Tick.c
81 2C54 0 CODE 0
83 2C54 0 CODE 0
84 2C58 0 CODE 0
85 2C5C 0 CODE 0
86 2C68 0 CODE 0
87 2C6C 0 CODE 0
mcc_generated_files/tmr2.c
95 2D1A 0 CODE 0
98 2D1A 0 CODE 0
99 2D1C 0 CODE 0
mcc_generated_files/tmr2.c
63 2B84 0 CODE 0
68 2B84 0 CODE 0
71 2B88 0 CODE 0
74 2B8C 0 CODE 0
77 2B90 0 CODE 0
80 2B92 0 CODE 0
83 2B94 0 CODE 0
86 2BA0 0 CODE 0
87 2BA4 0 CODE 0
mcc_generated_files/tmr2.c
89 2D1E 0 CODE 0
92 2D1E 0 CODE 0
93 2D20 0 CODE 0
mcc_generated_files/tmr2.c
142 2CF4 0 CODE 0
143 2CF4 0 CODE 0
144 2CFC 0 CODE 0
Source/lcd_8bit.c
53 1EF6 0 CODE 0
55 1EF6 0 CODE 0
56 1EF8 0 CODE 0
57 1EFA 0 CODE 0
59 1EFC 0 CODE 0
60 1EFE 0 CODE 0
62 1F00 0 CODE 0
63 1F02 0 CODE 0
64 1F04 0 CODE 0
65 1F06 0 CODE 0
66 1F08 0 CODE 0
67 1F0A 0 CODE 0
68 1F0C 0 CODE 0
69 1F0E 0 CODE 0
72 1F10 0 CODE 0
73 1F12 0 CODE 0
74 1F22 0 CODE 0
75 1F24 0 CODE 0
78 1F34 0 CODE 0
79 1F3A 0 CODE 0
80 1F40 0 CODE 0
81 1F46 0 CODE 0
82 1F4C 0 CODE 0
83 1F52 0 CODE 0
84 1F58 0 CODE 0
85 1F5E 0 CODE 0
86 1F64 0 CODE 0
87 1F6A 0 CODE 0
88 1F70 0 CODE 0
89 1F76 0 CODE 0
90 1F7A 0 CODE 0
91 1F7E 0 CODE 0
92 1F84 0 CODE 0
93 1F8A 0 CODE 0
Source/lcd_8bit.c
102 2960 0 CODE 0
104 2960 0 CODE 0
105 296E 0 CODE 0
106 297C 0 CODE 0
107 298A 0 CODE 0
108 2998 0 CODE 0
Source/lcd_8bit.c
171 261E 0 CODE 0
173 2620 0 CODE 0
174 2624 0 CODE 0
176 2630 0 CODE 0
178 263C 0 CODE 0
176 2662 0 CODE 0
180 2666 0 CODE 0
181 266C 0 CODE 0
Source/lcd_8bit.c
283 17A6 0 CODE 0
285 17A8 0 CODE 0
286 17AC 0 CODE 0
287 17AE 0 CODE 0
289 17B0 0 CODE 0
290 17C6 0 CODE 0
291 17CA 0 CODE 0
292 17DE 0 CODE 0
293 17E2 0 CODE 0
294 17F6 0 CODE 0
295 17FA 0 CODE 0
296 180C 0 CODE 0
297 1810 0 CODE 0
298 1828 0 CODE 0
299 182C 0 CODE 0
300 1842 0 CODE 0
301 1846 0 CODE 0
302 185A 0 CODE 0
303 185E 0 CODE 0
305 1870 0 CODE 0
306 1872 0 CODE 0
307 1882 0 CODE 0
Source/lcd_8bit.c
203 2B3C 0 CODE 0
205 2B3E 0 CODE 0
206 2B44 0 CODE 0
207 2B4E 0 CODE 0
208 2B58 0 CODE 0
209 2B5E 0 CODE 0
Source/lcd_8bit.c
157 2CC6 0 CODE 0
159 2CC8 0 CODE 0
160 2CD0 0 CODE 0
Source/lcd_8bit.c
190 2CB8 0 CODE 0
192 2CB8 0 CODE 0
193 2CBE 0 CODE 0
194 2CC4 0 CODE 0
Source/lcd_8bit.c
145 2CD2 0 CODE 0
147 2CD4 0 CODE 0
148 2CDC 0 CODE 0
Source/lcd_8bit.c
249 1886 0 CODE 0
251 1888 0 CODE 0
252 188C 0 CODE 0
253 188E 0 CODE 0
255 1890 0 CODE 0
256 18A6 0 CODE 0
257 18AA 0 CODE 0
258 18BE 0 CODE 0
259 18C2 0 CODE 0
260 18D6 0 CODE 0
261 18DA 0 CODE 0
262 18EC 0 CODE 0
263 18F0 0 CODE 0
264 1908 0 CODE 0
265 190C 0 CODE 0
266 1922 0 CODE 0
267 1926 0 CODE 0
268 193A 0 CODE 0
269 193E 0 CODE 0
271 1950 0 CODE 0
272 1952 0 CODE 0
273 1962 0 CODE 0
Source/lcd_8bit.c
317 2CFE 0 CODE 0
339 2CFE 0 CODE 0
Source/eeprom.c
92 209E 0 CODE 0
94 209E 0 CODE 0
95 20BC 0 CODE 0
96 20C8 0 CODE 0
97 20F6 0 CODE 0
99 2114 0 CODE 0
100 2120 0 CODE 0
Source/eeprom.c
114 286E 0 CODE 0
118 286E 0 CODE 0
121 2874 0 CODE 0
129 289A 0 CODE 0
Source/hal_eeprom.c
96 1DC8 0 CODE 0
106 1DCA 0 CODE 0
110 1DCE 0 CODE 0
111 1DD2 0 CODE 0
118 1DD6 0 CODE 0
123 1DF4 0 CODE 0
125 1E12 0 CODE 0
126 1E1A 0 CODE 0
129 1E1C 0 CODE 0
132 1E32 0 CODE 0
134 1E3A 0 CODE 0
135 1E40 0 CODE 0
144 1E44 0 CODE 0
145 1E4E 0 CODE 0
147 1E52 0 CODE 0
126 1E56 0 CODE 0
151 1E5C 0 CODE 0
mcc_generated_files/i2c2.c
707 27A6 0 CODE 0
713 27A6 0 CODE 0
714 27C4 0 CODE 0
715 27D4 0 CODE 0
716 27E8 0 CODE 0
mcc_generated_files/i2c2.c
641 1B14 0 CODE 0
642 1B14 0 CODE 0
648 1B16 0 CODE 0
650 1B1C 0 CODE 0
652 1B28 0 CODE 0
653 1B3E 0 CODE 0
654 1B4A 0 CODE 0
655 1B60 0 CODE 0
658 1B6A 0 CODE 0
661 1B7C 0 CODE 0
666 1B88 0 CODE 0
669 1B8C 0 CODE 0
672 1BA2 0 CODE 0
675 1BA6 0 CODE 0
678 1BA8 0 CODE 0
682 1BB4 0 CODE 0
684 1BC4 0 CODE 0
688 1BCA 0 CODE 0
mcc_generated_files/i2c2.c
694 266E 0 CODE 0
700 266E 0 CODE 0
702 268C 0 CODE 0
703 2698 0 CODE 0
704 26A8 0 CODE 0
705 26BC 0 CODE 0
mcc_generated_files/i2c2.c
705 8 0 CODE 0
mcc_generated_files/interrupt_manager.c
57 8 0 CODE 0
60 42 0 CODE 0
62 4C 0 CODE 0
63 50 0 CODE 0
64 52 0 CODE 0
66 5C 0 CODE 0
67 60 0 CODE 0
68 62 0 CODE 0
70 6C 0 CODE 0
71 70 0 CODE 0
72 72 0 CODE 0
74 7C 0 CODE 0
75 80 0 CODE 0
76 82 0 CODE 0
78 8A 0 CODE 0
84 8E 0 CODE 0
mcc_generated_files/tmr2.c
121 2D08 0 CODE 0
125 2D08 0 CODE 0
129 2D0A 0 CODE 0
130 2D0E 0 CODE 0
mcc_generated_files/tmr2.c
132 2B60 0 CODE 0
136 2B60 0 CODE 0
138 2B6C 0 CODE 0
mcc_generated_files/tmr2.c
146 2D22 0 CODE 0
149 2D22 0 CODE 0
Source/system_Tick.c
53 2CDE 0 CODE 0
55 2CDE 0 CODE 0
56 2CE4 0 CODE 0
58 2CE8 0 CODE 0
mcc_generated_files/i2c2.c
233 88A 0 CODE 0
241 88A 0 CODE 0
245 88C 0 CODE 0
248 890 0 CODE 0
249 892 0 CODE 0
250 896 0 CODE 0
253 8B8 0 CODE 0
255 8C4 0 CODE 0
261 8C6 0 CODE 0
263 8C6 0 CODE 0
266 8CC 0 CODE 0
267 8D4 0 CODE 0
268 8E0 0 CODE 0
270 8F6 0 CODE 0
273 900 0 CODE 0
276 912 0 CODE 0
281 91E 0 CODE 0
284 922 0 CODE 0
287 938 0 CODE 0
288 93C 0 CODE 0
291 93C 0 CODE 0
294 93E 0 CODE 0
297 942 0 CODE 0
299 944 0 CODE 0
304 944 0 CODE 0
307 946 0 CODE 0
309 94A 0 CODE 0
311 94C 0 CODE 0
313 94C 0 CODE 0
315 950 0 CODE 0
316 954 0 CODE 0
317 95A 0 CODE 0
321 95C 0 CODE 0
324 96A 0 CODE 0
328 96E 0 CODE 0
329 972 0 CODE 0
333 974 0 CODE 0
337 978 0 CODE 0
339 97A 0 CODE 0
341 97A 0 CODE 0
343 97E 0 CODE 0
344 982 0 CODE 0
345 988 0 CODE 0
346 98A 0 CODE 0
350 98A 0 CODE 0
354 98C 0 CODE 0
357 9AC 0 CODE 0
360 9AE 0 CODE 0
363 9B2 0 CODE 0
366 9B6 0 CODE 0
381 9B8 0 CODE 0
384 9BE 0 CODE 0
385 9CE 0 CODE 0
386 9E4 0 CODE 0
409 9F6 0 CODE 0
412 9F6 0 CODE 0
413 9FA 0 CODE 0
416 9FE 0 CODE 0
417 A02 0 CODE 0
421 A04 0 CODE 0
424 A08 0 CODE 0
426 A0A 0 CODE 0
429 A0A 0 CODE 0
432 A0E 0 CODE 0
435 A12 0 CODE 0
438 A14 0 CODE 0
440 A1A 0 CODE 0
444 A1C 0 CODE 0
449 A24 0 CODE 0
452 A2E 0 CODE 0
454 A32 0 CODE 0
455 A38 0 CODE 0
456 A3A 0 CODE 0
464 A3A 0 CODE 0
467 A3C 0 CODE 0
470 A40 0 CODE 0
474 A42 0 CODE 0
477 A54 0 CODE 0
479 A56 0 CODE 0
482 A56 0 CODE 0
486 A5A 0 CODE 0
489 A5E 0 CODE 0
492 A64 0 CODE 0
493 A66 0 CODE 0
494 A68 0 CODE 0
496 A68 0 CODE 0
497 A6A 0 CODE 0
499 A6E 0 CODE 0
506 A70 0 CODE 0
509 A74 0 CODE 0
511 A76 0 CODE 0
516 A78 0 CODE 0
519 A8A 0 CODE 0
526 A92 0 CODE 0
529 A94 0 CODE 0
530 A98 0 CODE 0
531 A9A 0 CODE 0
536 A9A 0 CODE 0
538 A9C 0 CODE 0
542 AA0 0 CODE 0
543 AA2 0 CODE 0
549 AA4 0 CODE 0
550 AAA 0 CODE 0
556 AAC 0 CODE 0
557 AB0 0 CODE 0
560 AB6 0 CODE 0
259 AB8 0 CODE 0
mcc_generated_files/i2c2.c
581 282C 0 CODE 0
584 282E 0 CODE 0
587 2830 0 CODE 0
590 2846 0 CODE 0
594 2868 0 CODE 0
596 286C 0 CODE 0
mcc_generated_files/i2c2.c
563 2C6E 0 CODE 0
567 2C6E 0 CODE 0
570 2C78 0 CODE 0
572 2C7C 0 CODE 0
573 2C80 0 CODE 0
576 2C82 0 CODE 0
mcc_generated_files/i2c2.c
728 2D24 0 CODE 0
731 2D24 0 CODE 0
mcc_generated_files/eusart1.c
155 2A94 0 CODE 0
159 2A94 0 CODE 0
161 2A9A 0 CODE 0
162 2AB0 0 CODE 0
164 2AB6 0 CODE 0
166 2ABA 0 CODE 0
167 2ABC 0 CODE 0
168 2ABE 0 CODE 0
170 2ABE 0 CODE 0
mcc_generated_files/eusart1.c
174 2AC2 0 CODE 0
177 2AC2 0 CODE 0
181 2AC6 0 CODE 0
182 2AC8 0 CODE 0
186 2ACA 0 CODE 0
187 2AE0 0 CODE 0
189 2AE6 0 CODE 0
191 2AEA 0 CODE 0
192 2AEC 0 CODE 0
