>>> Warning 216 "main.c" Line 628(2,7): Interrupts disabled during call to prevent re-entrancy:  (@DIV1616)
>>> Warning 202 "C:\Firmware\dds_project\Source\pc_interface.c" Line 124(13,17): Variable never used:   argc
>>> Warning 202 "C:\Firmware\dds_project\Source\pc_interface.c" Line 124(19,20): Variable never used:   i
>>> Warning 202 "C:\Firmware\dds_project\Source\pc_interface.c" Line 126(27,37): Variable never used:   returnCode
>>> Warning 202 "main.c" Line 115(13,14): Variable never used:   i
      Memory usage:   ROM=29%      RAM=53% - 59%
      0 Errors,  5 Warnings.
Build Successful.
